<svg width="10" height="15" viewBox="0 0 10 15" fill="none" xmlns="http://www.w3.org/2000/svg">
<rect width="10" height="15" fill="#1E1E1E"/>
<g clip-path="url(#clip0_0_1)">
<rect width="1368" height="6592" transform="translate(-304 -42)" fill="white"/>
<rect x="-77" y="-12" width="98" height="39" rx="4" fill="#0F8277"/>
<path d="M1 8.5L5 12.5L9 8.5" stroke="#EEEEEE" stroke-width="2" stroke-linecap="round" stroke-linejoin="round"/>
</g>
<defs>
<clipPath id="clip0_0_1">
<rect width="1368" height="6592" fill="white" transform="translate(-304 -42)"/>
</clipPath>
</defs>
</svg>
